"sep=,"
calculated x coordinate,calculated y coordinate,x coordinate before exposure,y coordinate before exposure,x coordinate after exposure,y coordinate after exposure,counts
-14,10,276,150,285,-86,19
-13,10,310,146,315,-86,20
-11,10,341,146,344,-86,22
-9,10,360,146,374,-86,24
-7,10,399,146,403,-86,19
-5,10,418,146,433,-86,22
-3,10,458,146,462,-86,23
-1,10,489,146,492,-86,31
0,10,517,146,521,-86,17
2,10,546,146,551,-86,12
4,10,576,146,580,-86,15
6,10,605,146,610,-86,25
8,10,635,146,639,-86,22
10,10,664,146,669,-86,28
12,10,694,146,698,-86,28
14,10,722,146,728,-86,14
16,10,752,146,757,-86,20
-14,8,277,186,285,-64,18
-13,8,309,173,315,-64,13
-11,8,340,173,344,-64,16
-9,8,369,173,374,-64,13
-7,8,389,173,403,-64,15
-5,8,419,173,433,-64,24
-3,8,458,173,462,-64,28
-1,8,478,173,492,-64,14
0,8,507,173,521,-64,21
2,8,546,173,551,-64,33
4,8,576,173,580,-64,19
6,8,605,173,610,-64,25
8,8,625,173,639,-64,28
10,8,663,173,669,-64,17
12,8,684,173,698,-64,19
14,8,715,173,728,-64,20
16,8,753,173,757,-64,15
-14,6,283,212,285,-41,19
-13,6,310,200,315,-41,4
-11,6,340,200,344,-41,16
-9,6,360,200,374,-41,12
-7,6,397,200,403,-41,28
-5,6,428,200,433,-41,40
-3,6,457,200,462,-41,13
-1,6,479,200,492,-41,27
0,6,517,200,521,-41,15
2,6,544,200,551,-41,18
4,6,576,200,580,-41,23
6,6,595,200,610,-41,31
8,6,625,200,639,-41,38
10,6,664,200,669,-41,24
12,6,694,200,698,-41,13
14,6,723,200,728,-41,14
16,6,743,200,757,-41,26
-14,4,276,239,285,-18,8
-13,4,309,227,315,-18,22
-11,4,336,227,344,-18,29
-9,4,361,227,374,-18,14
-7,4,399,227,403,-18,20
-5,4,429,227,433,-18,19
-3,4,457,227,462,-18,27
-1,4,479,227,492,-18,31
0,4,515,227,521,-18,35
2,4,538,227,551,-18,35
4,4,575,227,580,-18,37
6,4,605,227,610,-18,31
8,4,626,227,639,-18,14
10,4,665,227,669,-18,16
12,4,694,227,698,-18,32
14,4,714,227,728,-18,19
16,4,753,227,757,-18,8
-14,2,297,266,285,5,29
-13,2,300,254,315,5,25
-11,2,340,254,344,5,22
-9,2,359,254,374,5,18
-7,2,390,254,403,5,16
-5,2,419,254,433,5,24
-3,2,450,254,462,5,37
-1,2,488,254,492,5,49
0,2,515,254,521,5,51
2,2,546,254,551,5,41
4,2,576,254,580,5,45
6,2,602,254,610,5,25
8,2,635,254,639,5,19
10,2,664,254,669,5,16
12,2,694,254,698,5,26
14,2,719,254,728,5,21
16,2,751,254,757,5,23
-14,0,276,293,285,29,17
-13,0,311,281,315,29,19
-11,0,330,281,344,29,11
-9,0,369,281,374,29,26
-7,0,389,281,403,29,20
-5,0,421,281,433,29,40
-3,0,448,281,462,29,42
-1,0,487,281,492,29,64
0,0,507,281,521,29,89
2,0,543,281,551,29,51
4,0,576,281,580,29,34
6,0,603,281,610,29,28
8,0,626,281,639,29,26
10,0,664,281,669,29,17
12,0,684,281,698,29,12
14,0,723,281,728,29,17
16,0,753,281,757,29,18
-14,-1,277,319,285,53,32
-13,-1,310,308,315,53,34
-11,-1,340,308,344,53,25
-9,-1,360,308,374,53,17
-7,-1,398,308,399,53,31
-5,-1,429,308,433,53,47
-3,-1,459,308,462,53,65
-1,-1,487,308,492,53,55
0,-1,508,308,521,53,65
2,-1,546,308,551,53,58
4,-1,566,308,580,53,46
6,-1,601,308,609,53,63
8,-1,626,308,639,53,28
10,-1,664,308,669,53,27
12,-1,693,308,698,53,21
14,-1,714,308,728,53,19
16,-1,744,308,757,53,8
-14,-3,276,346,285,78,19
-13,-3,311,335,315,78,5
-11,-3,330,335,344,78,20
-9,-3,361,335,374,78,23
-7,-3,397,335,403,78,23
-5,-3,429,335,433,78,34
-3,-3,457,335,462,78,45
-1,-3,479,335,492,78,67
0,-3,517,335,521,78,67
2,-3,543,335,551,78,68
4,-3,575,335,580,78,54
6,-3,605,335,610,78,38
8,-3,634,335,639,78,27
10,-3,664,335,669,78,26
12,-3,694,335,698,78,24
14,-3,723,335,728,78,16
16,-3,744,335,757,78,10
-14,-5,276,373,285,104,16
-13,-5,302,362,315,104,12
-11,-5,340,362,344,104,33
-9,-5,359,362,374,104,25
-7,-5,398,362,403,104,16
-5,-5,428,362,433,104,34
-3,-5,458,362,462,104,43
-1,-5,485,362,492,104,68
0,-5,508,362,521,104,66
2,-5,545,362,551,104,48
4,-5,576,362,580,104,50
6,-5,605,362,610,104,41
8,-5,635,362,639,104,20
10,-5,664,362,669,104,26
12,-5,684,362,698,104,32
14,-5,715,362,728,104,29
16,-5,743,362,757,104,20
-14,-7,282,400,285,130,14
-13,-7,301,389,315,130,16
-11,-7,340,389,344,130,14
-9,-7,364,389,374,130,14
-7,-7,399,389,403,130,10
-5,-7,418,389,433,130,19
-3,-7,458,389,462,130,21
-1,-7,489,389,492,130,24
0,-7,507,389,521,130,34
2,-7,546,389,551,130,36
4,-7,567,389,580,130,33
6,-7,606,389,610,130,21
8,-7,633,389,639,130,22
10,-7,664,389,669,130,27
12,-7,691,389,698,130,19
14,-7,713,389,728,130,21
16,-7,753,389,757,130,32
-14,-9,292,426,285,157,12
-13,-9,301,416,315,157,29
-11,-9,340,416,344,157,11
-9,-9,368,416,374,157,21
-7,-9,391,416,398,157,31
-5,-9,429,416,433,157,15
-3,-9,449,416,462,157,20
-1,-9,488,416,492,157,18
0,-9,507,416,521,157,25
2,-9,546,416,551,157,24
4,-9,576,416,580,157,9
6,-9,605,416,610,157,18
8,-9,626,416,635,157,27
10,-9,664,416,669,157,21
12,-9,685,416,698,157,25
14,-9,713,416,728,157,18
16,-9,744,416,757,157,13
